{
    "name": "Alex Thornton",
    "college": "Science, Technology, Engineering & Mathematics",
    "enrolledCourses": {
        "number": "CSCD210",
        "name": "Programming Principles I"
    }
}
